Serial#,LDEV#,SL,CL,VOL_TYPE,VOL_Cap(BLK),PID,ATTRIBUTE,VOL_Used(BLK),TR,TL,T#1(MB),T#2(MB),...
53280,0,0,0,OPEN-V-CVS,8589934592,10,CVS|HORC|HDP|HDT,2540396544,E,0,29862,502488,708078,0,0
53280,1,0,0,OPEN-V-CVS,8589934592,10,CVS|HDP|HDT,1139281920,E,0,9324,113904,433062,0,0
53280,6,0,0,OPEN-V-CVS,4294967296,10,CVS|HORC|HDP|HDT,2456961024,E,0,5292,933072,261324,0,0
53280,24,0,0,OPEN-V-CVS,157286400,30,CVS|MRCF|HDP|HDT,38879232,E,0,672,18312,0,0,0
53280,28,0,0,OPEN-V-CVS,8589934592,10,CVS|HDP|HDT,8004476928,E,0,25074,2953986,929376,0,0
53280,29,0,0,OPEN-V-CVS,2097152,11,CVS|HDP|HDT,0,E,0,0,0,0,0,0
53280,30,0,0,OPEN-V-CVS,10485760,11,CVS|HDP|HDT,0,E,0,0,0,0,0,0
53280,31,0,0,OPEN-V-CVS,4294967296,10,CVS|HDP|HDT,2719481856,E,0,10752,1287972,29148,0,0
53280,2560,0,0,OPEN-V-CVS,104857600,100,CVS|HORC|MRCF|HDP,104939520,-,-,0,0,0,0,0
53280,2561,0,0,OPEN-V-CVS,104857600,100,CVS|HORC|MRCF|HDP,104939520,-,-,0,0,0,0,0
53280,2562,0,0,OPEN-V-CVS,104857600,100,CVS|HORC|MRCF|HDP,104939520,-,-,0,0,0,0,0
53280,2563,0,0,OPEN-V-CVS,104857600,100,CVS|HORC|MRCF|HDP,104939520,-,-,0,0,0,0,0
53280,2564,0,0,OPEN-V-CVS,104857600,100,CVS|HORC|MRCF|HDP,104939520,-,-,0,0,0,0,0
53280,2565,0,0,OPEN-V-CVS,104857600,100,CVS|HORC|MRCF|HDP,104939520,-,-,0,0,0,0,0
53280,2566,0,0,OPEN-V-CVS,104857600,100,CVS|HORC|MRCF|HDP,104939520,-,-,0,0,0,0,0
53280,2567,0,0,OPEN-V-CVS,104857600,100,CVS|HORC|MRCF|HDP,104939520,-,-,0,0,0,0,0
53280,2568,0,0,OPEN-V-CVS,104857600,100,CVS|HORC|MRCF|HDP,104939520,-,-,0,0,0,0,0
53280,2569,0,0,OPEN-V-CVS,104857600,100,CVS|HORC|MRCF|HDP,104939520,-,-,0,0,0,0,0
53280,2576,0,0,OPEN-V-CVS,209715200,100,CVS|HORC|MRCF|HDP,209793024,-,-,0,0,0,0,0
53280,20494,0,0,OPEN-V-CVS,209715200,10,CVS|HORC|HDP|HDT,209448960,E,0,756,11634,89880,0,0
53280,20495,0,0,OPEN-V-CVS,524288000,1,CVS|HORC|HDP,456314880,-,-,0,0,0,0,0
53280,20496,0,0,OPEN-V-CVS,524288000,10,CVS|HORC|HDP|HDT,524181504,E,0,0,255906,42,0,0
53280,20497,0,0,OPEN-V-CVS,524288000,10,CVS|HORC|HDP|HDT,524181504,E,0,0,254310,1638,0,0
53280,20498,0,0,OPEN-V-CVS,524288000,10,CVS|HORC|HDP|HDT,476700672,E,0,0,84,232680,0,0
53280,20499,0,0,OPEN-V-CVS,524288000,10,CVS|HORC|HDP|HDT,254951424,E,0,3906,11508,109074,0,0
53280,20500,0,0,OPEN-V-CVS,209715200,10,CVS|HORC|HDP|HDT,162398208,E,0,84,2604,76608,0,0
53280,20501,0,0,OPEN-V-CVS,209715200,10,CVS|HORC|HDP|HDT,8515584,E,0,84,210,3864,0,0
53280,20502,0,0,OPEN-V-CVS,104857600,10,CVS|HORC|HDP|HDT,71823360,E,0,15540,5502,14028,0,0
53280,20503,0,0,OPEN-V-CVS,209715200,10,CVS|HORC|HDP|HDT,17203200,E,0,126,4746,3528,0,0
53280,20504,0,0,OPEN-V-CVS,209715200,10,CVS|HORC|HDP|HDT,104939520,E,0,0,42,51198,0,0
53280,20505,0,0,OPEN-V-CVS,209715200,10,CVS|HORC|HDP|HDT,104767488,E,0,0,42,51114,0,0
53280,20506,0,0,OPEN-V-CVS,104857600,10,CVS|HORC|HDP|HDT,430080,E,0,42,84,84,0,0
53280,20507,0,0,OPEN-V-CVS,104857600,10,CVS|HORC|HDP|HDT,58662912,E,0,0,24318,4326,0,0
53280,20508,0,0,OPEN-V-CVS,104857600,10,CVS|HORC|HDP|HDT,75350016,E,0,0,84,36708,0,0
53280,20509,0,0,OPEN-V-CVS,104857600,10,CVS|HORC|HDP|HDT,104767488,E,0,0,126,51030,0,0
53280,20510,0,0,OPEN-V-CVS,104857600,10,CVS|HORC|HDP|HDT,104767488,E,0,0,126,51030,0,0
53280,20511,0,0,OPEN-V-CVS,104857600,10,CVS|HORC|HDP|HDT,104767488,E,0,0,1008,50148,0,0
53280,20512,0,0,OPEN-V-CVS,104857600,10,CVS|HORC|HDP|HDT,104767488,E,0,0,42,51114,0,0
53280,20513,0,0,OPEN-V-CVS,104857600,10,CVS|HORC|HDP|HDT,104767488,E,0,0,42,51114,0,0
53280,20514,0,0,OPEN-V-CVS,104857600,10,CVS|HORC|HDP|HDT,37933056,E,0,0,42,18480,0,0
53280,20515,0,0,OPEN-V-CVS,104857600,10,CVS|HORC|HDP|HDT,86016,E,0,0,42,0,0,0
53280,20516,0,0,OPEN-V-CVS,104857600,10,CVS|HDP|HDT,28987392,E,0,42,3948,10164,0,0
53280,20517,0,0,OPEN-V-CVS,104857600,10,CVS|HORC|HDP|HDT,7827456,E,0,0,1806,2016,0,0
53280,20518,0,0,OPEN-V-CVS,104857600,10,CVS|HORC|HDP|HDT,104767488,E,0,4494,26544,20118,0,0
53280,20519,0,0,OPEN-V-CVS,104857600,10,CVS|HORC|HDP|HDT,104767488,E,0,3654,27426,20076,0,0
53280,20520,0,0,OPEN-V-CVS,104857600,10,CVS|HORC|HDP|HDT,104767488,E,0,3486,27636,20034,0,0
53280,20521,0,0,OPEN-V-CVS,104857600,10,CVS|HORC|HDP|HDT,104767488,E,0,3612,27594,19950,0,0
53280,20522,0,0,OPEN-V-CVS,209715200,10,CVS|HDP|HDT,25202688,E,0,420,2730,9156,0,0
53280,20523,0,0,OPEN-V-CVS,524288000,10,CVS|HORC|HDP|HDT,524181504,E,0,5712,250236,0,0,0
53280,20524,0,0,OPEN-V-CVS,524288000,10,CVS|HORC|HDP|HDT,524181504,E,0,0,8694,247254,0,0
53280,20525,0,0,OPEN-V-CVS,524288000,10,CVS|HORC|HDP|HDT,468443136,E,0,294,21336,207102,0,0
53280,20526,0,0,OPEN-V-CVS,209715200,10,CVS|HORC|HDP|HDT,209707008,E,0,0,102396,0,0,0
53280,20527,0,0,OPEN-V-CVS,209715200,10,CVS|HORC|HDP|HDT,181665792,E,0,0,88578,126,0,0
53280,20528,0,0,OPEN-V-CVS,104857600,10,CVS|HORC|MRCF|HDP|HDT,104767488,E,0,37464,13692,0,0,0
53280,20529,0,0,OPEN-V-CVS,104857600,10,CVS|HORC|HDP|HDT,104767488,E,0,0,21420,29736,0,0
53280,20530,0,0,OPEN-V-CVS,104857600,10,CVS|HORC|HDP|HDT,100380672,E,0,0,26208,22806,0,0
53280,20531,0,0,OPEN-V-CVS,104857600,10,CVS|HORC|HDP|HDT,92295168,E,0,0,32802,12264,0,0
53280,20532,0,0,OPEN-V-CVS,104857600,10,CVS|HORC|HDP|HDT,85069824,E,0,15750,11928,13860,0,0
53280,20533,0,0,OPEN-V-CVS,104857600,1,CVS|HORC|HDP,55222272,-,-,0,0,0,0,0
53280,20534,0,0,OPEN-V-CVS,104857600,1,CVS|HORC|HDP,54620160,-,-,0,0,0,0,0
53280,20535,0,0,OPEN-V-CVS,209715200,10,CVS|HORC|HDP|HDT,209620992,E,0,6426,95928,0,0,0
53280,20536,0,0,OPEN-V-CVS,209715200,10,CVS|HORC|HDP|HDT,209620992,E,0,4956,97398,0,0,0
53280,20537,0,0,OPEN-V-CVS,209715200,10,CVS|HORC|HDP|HDT,209620992,E,0,5460,96894,0,0,0
53280,20538,0,0,OPEN-V-CVS,209715200,10,CVS|HORC|HDP|HDT,209620992,E,0,6888,95466,0,0,0
53280,20539,0,0,OPEN-V-CVS,209715200,10,CVS|HORC|HDP|HDT,209620992,E,0,5460,96894,0,0,0
53280,20540,0,0,OPEN-V-CVS,209715200,10,CVS|HORC|HDP|HDT,209620992,E,0,5628,96726,0,0,0
53280,20541,0,0,OPEN-V-CVS,209715200,10,CVS|HORC|HDP|HDT,209620992,E,0,4830,97524,0,0,0
53280,20542,0,0,OPEN-V-CVS,209715200,10,CVS|HORC|HDP|HDT,209620992,E,0,5376,96978,0,0,0
53280,20543,0,0,OPEN-V-CVS,209715200,10,CVS|HORC|HDP|HDT,209620992,E,0,126,19992,82236,0,0
53280,20544,0,0,OPEN-V-CVS,209715200,10,CVS|HORC|HDP|HDT,209620992,E,0,0,19992,82362,0,0
53280,20545,0,0,OPEN-V-CVS,209715200,10,CVS|HORC|HDP|HDT,209620992,E,0,0,19236,83118,0,0
53280,20546,0,0,OPEN-V-CVS,209715200,10,CVS|HORC|HDP|HDT,209620992,E,0,84,20034,82236,0,0
53280,20547,0,0,OPEN-V-CVS,209715200,10,CVS|HORC|HDP|HDT,209620992,E,0,0,19656,82698,0,0
53280,20548,0,0,OPEN-V-CVS,209715200,10,CVS|HORC|HDP|HDT,209620992,E,0,84,19026,83244,0,0
53280,20549,0,0,OPEN-V-CVS,209715200,10,CVS|HORC|HDP|HDT,209620992,E,0,210,18228,83916,0,0
53280,20550,0,0,OPEN-V-CVS,209715200,10,CVS|HORC|HDP|HDT,209620992,E,0,0,20328,82026,0,0
53280,20551,0,0,OPEN-V-CVS,104857600,1,CVS|HORC|HDP,104767488,-,-,0,0,0,0,0
53280,20552,0,0,OPEN-V-CVS,209715200,1,CVS|HDP,209620992,-,-,0,0,0,0,0
53280,20553,0,0,OPEN-V-CVS,209715200,1,CVS|HDP,209620992,-,-,0,0,0,0,0
53280,20554,0,0,OPEN-V-CVS,209715200,1,CVS|HDP,209620992,-,-,0,0,0,0,0
53280,20555,0,0,OPEN-V-CVS,209715200,1,CVS|HDP,209620992,-,-,0,0,0,0,0
53280,20556,0,0,OPEN-V-CVS,209715200,1,CVS|HDP,209620992,-,-,0,0,0,0,0
53280,20557,0,0,OPEN-V-CVS,209715200,1,CVS|HDP,209620992,-,-,0,0,0,0,0
53280,20558,0,0,OPEN-V-CVS,209715200,1,CVS|HDP,209620992,-,-,0,0,0,0,0
53280,20559,0,0,OPEN-V-CVS,209715200,1,CVS|HDP,209620992,-,-,0,0,0,0,0
53280,20560,0,0,OPEN-V-CVS,209715200,1,CVS|HDP,209620992,-,-,0,0,0,0,0
53280,20561,0,0,OPEN-V-CVS,209715200,1,CVS|HDP,209620992,-,-,0,0,0,0,0
53280,20562,0,0,OPEN-V-CVS,209715200,1,CVS|HDP,209620992,-,-,0,0,0,0,0
